Division,WeightClassKg,Place,Name,Team,BodyweightKg,Best3SquatKg,Best3BenchKg,Best3DeadliftKg,TotalKg,Equipment,Event,Sex,BirthDate
Boys,51.71,1,Zailyn Butler,Sherman,51.62,151.95,79.38,142.88,374.21,Unlimited,SBD,M,
Boys,51.71,2,Christian Southard,Aubrey,47.99,113.4,79.38,124.74,317.51,Unlimited,SBD,M,
Boys,51.71,3,Cole Krouskup,Pilot Point,51.48,97.52,68.04,127.01,292.57,Unlimited,SBD,M,
Boys,51.71,4,Marcelo Patino,Frisco Emerson,51.12,111.13,56.7,111.13,278.96,Unlimited,SBD,M,
Boys,51.71,5,Ian Yang,Prosper,50.3,92.99,52.16,102.06,247.21,Unlimited,SBD,M,
Boys,51.71,6,Evan Ewton,Denison,46.9,79.38,61.23,92.99,233.6,Unlimited,SBD,M,
Boys,51.71,7,Angel Olvera,Wolfe City,44.18,,61.23,102.06,163.29,Unlimited,BD,M,
Boys,55.79,1,Trey Shirey,Prosper,55.61,179.17,124.74,183.7,487.61,Unlimited,SBD,M,
Boys,55.79,2,Colby Murphey,Ponder,54.79,142.88,90.72,147.42,381.02,Unlimited,SBD,M,
Boys,55.79,3,Dominic Escalante,Pilot Point,55.61,95.25,61.23,127.01,283.5,Unlimited,SBD,M,
Boys,55.79,4,Caden Murphy,Ponder,55.79,106.59,56.7,111.13,274.42,Unlimited,SBD,M,
Boys,55.79,5,Jayce Lehde,Sadler S & S Consolidated,54.39,77.11,61.23,92.99,231.33,Unlimited,SBD,M,
Boys,55.79,DQ,Adrian Calderon,Tioga,55.38,83.91,,,,Unlimited,SBD,M,
Boys,59.87,1,Andy Mejia,Carrollton Creekview,59.42,170.1,104.33,179.17,453.59,Unlimited,SBD,M,
Boys,59.87,2,Wayne Aquinaldo,Aubrey,59.6,142.88,102.06,147.42,392.36,Unlimited,SBD,M,
Boys,59.87,3,Jose Cuellar,Celina,57.61,142.88,102.06,136.08,381.02,Unlimited,SBD,M,
Boys,59.87,4,Jeremiah Dunn,Prosper,59.28,151.95,102.06,124.74,378.75,Unlimited,SBD,M,
Boys,59.87,5,Christian Keen,Callisburg,59.87,142.88,92.99,140.61,376.48,Unlimited,SBD,M,
Boys,59.87,6,Tyler Stuckey,Aubrey,59.6,136.08,90.72,131.54,358.34,Unlimited,SBD,M,
Boys,59.87,7,Conner Peterson,Frisco Heritage,59.01,127.01,86.18,127.01,340.19,Unlimited,SBD,M,
Boys,59.87,8,Vivaan Sharma,Frisco Heritage,58.11,102.06,74.84,136.08,312.98,Unlimited,SBD,M,
Boys,59.87,9,Anthony Stogner,Bells,59.78,61.23,47.63,79.38,188.24,Unlimited,SBD,M,
Boys,59.87,DQ,Corbin Clouse,Aubrey,57.7,124.74,,,,Unlimited,SBD,M,
Boys,67.13,1,Angelo Yeck,Prosper,67.04,185.97,145.15,174.63,505.76,Unlimited,SBD,M,
Boys,67.13,2,Nathan Haines,Prosper,66.95,183.7,124.74,190.51,498.95,Unlimited,SBD,M,
Boys,67.13,3,Peyton Hulett,Prosper,64.5,197.31,131.54,165.56,494.42,Unlimited,SBD,M,
Boys,67.13,4,Gabriel Rangel,Sherman,62.91,179.17,106.59,172.37,458.13,Unlimited,SBD,M,
Boys,67.13,5,Austin Hash,Pottsboro,65.91,170.1,90.72,183.7,444.52,Unlimited,SBD,M,
Boys,67.13,6,Richie Eminovski,Pottsboro,66.9,154.22,120.2,170.1,444.52,Unlimited,SBD,M,
Boys,67.13,7,Kaden Dunn,Howe,64.32,161.03,104.33,176.9,442.25,Unlimited,SBD,M,
Boys,67.13,8,Tripp Ford,Celina,64.64,158.76,111.13,161.03,430.91,Unlimited,SBD,M,
Boys,67.13,9,Cannon Miller,Wolfe City,61.78,161.03,86.18,151.95,399.16,Unlimited,SBD,M,
Boys,67.13,10,Jacob Navarro,Wolfe City,62.19,136.08,86.18,151.95,374.21,Unlimited,SBD,M,
Boys,67.13,11,Case Carson,Van Alstyne,64.82,133.81,86.18,151.95,371.95,Unlimited,SBD,M,
Boys,67.13,12,Landon Westbrook,McKinney North,66.68,142.88,79.38,147.42,369.68,Unlimited,SBD,M,
Boys,67.13,13,Diego Comer,Prosper Walnut Grove,63.41,129.27,92.99,140.61,362.87,Unlimited,SBD,M,
Boys,67.13,14,Caleb Coleman,Van Alstyne,62.78,131.54,86.18,131.54,349.27,Unlimited,SBD,M,
Boys,67.13,15,Clayton Morgan,Aubrey,65.41,124.74,83.91,138.35,347,Unlimited,SBD,M,
Boys,67.13,16,Rhett Morgan,Pottsboro,63.82,124.74,74.84,145.15,344.73,Unlimited,SBD,M,
Boys,67.13,17,Jaden Nicholson,Ponder,62.41,124.74,79.38,138.35,342.46,Unlimited,SBD,M,
Boys,67.13,18,Joshua Martinez,Pilot Point,66.59,120.2,58.97,147.42,326.59,Unlimited,SBD,M,
Boys,67.13,19,Eli Colunga,Bells,61.19,111.13,68.04,129.27,308.44,Unlimited,SBD,M,
Boys,67.13,20,Anthony Rocconi,Tioga,62.69,102.06,70.31,133.81,306.17,Unlimited,SBD,M,
Boys,67.13,21,Edward Bush,Bells,65.82,102.06,61.23,111.13,274.42,Unlimited,SBD,M,
Boys,67.13,22,Noah Gross,Denison,65.68,97.52,61.23,90.72,249.48,Unlimited,SBD,M,
Boys,67.13,DQ,Gabriel Saunders,Aubrey,66.9,124.74,,,,Unlimited,SBD,M,
Boys,74.84,1,Aaron Freyer,Aubrey,73.8,247.21,145.15,233.6,625.96,Unlimited,SBD,M,
Boys,74.84,2,Ethan Hunt,Denison,73.39,226.8,145.15,249.48,621.42,Unlimited,SBD,M,
Boys,74.84,3,Alex Pena,Sherman,74.12,224.53,133.81,192.78,551.11,Unlimited,SBD,M,
Boys,74.84,4,Kale Jones,Ponder,73.8,215.46,124.74,201.85,542.04,Unlimited,SBD,M,
Boys,74.84,5,Angel Solarazano,Sherman,73.62,201.85,124.74,210.92,537.51,Unlimited,SBD,M,
Boys,74.84,6,Claetyn Moore,Ponder,71.99,201.85,106.59,183.7,492.15,Unlimited,SBD,M,
Boys,74.84,7,Gabe Zinksi,Callisburg,70.49,185.97,108.86,165.56,460.4,Unlimited,SBD,M,
Boys,74.84,8,Gentry Morrow,Pottsboro,73.71,172.37,108.86,176.9,458.13,Unlimited,SBD,M,
Boys,74.84,9,Matthew Accorinti,Anna,73.48,170.1,102.06,183.7,455.86,Unlimited,SBD,M,
Boys,74.84,10,Alan Skeje-Valle,Sherman,73.3,183.7,102.06,156.49,442.25,Unlimited,SBD,M,
Boys,74.84,11,Chris Torres,Howe,73.71,183.7,92.99,163.29,439.98,Unlimited,SBD,M,
Boys,74.84,12,Brayden Steinmetz,Pilot Point,67.99,163.29,88.45,181.44,433.18,Unlimited,SBD,M,
Boys,74.84,13,Raymond Jackson,Carrollton Creekview,72.3,142.88,106.59,183.7,433.18,Unlimited,SBD,M,
Boys,74.84,14,Aiden Harrison,McKinney North,73.71,151.95,104.33,176.9,433.18,Unlimited,SBD,M,
Boys,74.84,15,Makson Allred,Ponder,71.3,158.76,102.06,163.29,424.11,Unlimited,SBD,M,
Boys,74.84,16,Resse Prince,Prosper Walnut Grove,73.39,138.35,111.13,170.1,419.57,Unlimited,SBD,M,
Boys,74.84,17,David Benagh,Carrollton Creekview,70.31,142.88,102.06,165.56,410.5,Unlimited,SBD,M,
Boys,74.84,18,Joaquim Hernandez,McKinney North,74.12,145.15,92.99,165.56,403.7,Unlimited,SBD,M,
Boys,74.84,19,Justin Petty,Sadler S & S Consolidated,74.48,158.76,77.11,158.76,394.63,Unlimited,SBD,M,
Boys,74.84,20,Brayden Neal,Carrollton Creekview,71.71,129.27,108.86,145.15,383.29,Unlimited,SBD,M,
Boys,74.84,21,Charles Fuhr,Howe,69.4,127.01,90.72,136.08,353.8,Unlimited,SBD,M,
Boys,74.84,22,Chance Skinner,Van Alstyne,71.58,145.15,70.31,138.35,353.8,Unlimited,SBD,M,
Boys,74.84,23,Jackson Paul,Prosper Walnut Grove,72.71,129.27,83.91,136.08,349.27,Unlimited,SBD,M,
Boys,74.84,24,Hunter Bigham,Sadler S & S Consolidated,67.81,131.54,77.11,136.08,344.73,Unlimited,SBD,M,
Boys,74.84,25,Gabino Barco,Dodd City,74.12,83.91,74.84,117.93,276.69,Unlimited,SBD,M,
Boys,74.84,26,Dillon Diener,Prosper Walnut Grove,73.03,,61.23,65.77,127.01,Unlimited,BD,M,
Boys,74.84,27,Alexander Jones,Prosper Rock Hill,71.8,,,106.59,106.59,Unlimited,D,M,
Boys,82.1,1,Bailey Ohrn,Frisco Emerson,78.52,249.48,192.78,272.16,714.41,Unlimited,SBD,M,
Boys,82.1,2,Michael Griger,Denison,82.1,226.8,165.56,260.82,653.17,Unlimited,SBD,M,
Boys,82.1,3,Colby Ray Short,Sherman,78.02,235.87,161.03,229.06,625.96,Unlimited,SBD,M,
Boys,82.1,4,Reese Saunders,Aubrey,80.69,242.67,145.15,231.33,619.15,Unlimited,SBD,M,
Boys,82.1,5,Chase Hodges,Celina,80.38,226.8,176.9,206.38,610.08,Unlimited,SBD,M,
Boys,82.1,6,Austin Stutts,Frisco Wakeland,75.89,206.38,136.08,204.12,546.58,Unlimited,SBD,M,
Boys,82.1,7,Dre Richardson,Carrollton Creekview,81.42,199.58,129.27,199.58,528.44,Unlimited,SBD,M,
Boys,82.1,8,Jackson Pierce,Prosper Walnut Grove,80.78,179.17,151.95,185.97,517.1,Unlimited,SBD,M,
Boys,82.1,9,Luke Horning,Denison,80.01,192.78,117.93,201.85,512.56,Unlimited,SBD,M,
Boys,82.1,10,Marcus Agustin,Prosper Rock Hill,82.1,183.7,133.81,192.78,510.29,Unlimited,SBD,M,
Boys,82.1,11,Nathan Le,Frisco Liberty,80.51,165.56,142.88,183.7,492.15,Unlimited,SBD,M,
Boys,82.1,12,Nnamdi Mekaowulu,McKinney North,81.6,183.7,120.2,183.7,487.61,Unlimited,SBD,M,
Boys,82.1,13,Brandon Palmer,Denison,79.51,181.44,120.2,181.44,483.08,Unlimited,SBD,M,
Boys,82.1,14,Fahad Allen,Prosper,78.11,174.63,111.13,190.51,476.27,Unlimited,SBD,M,
Boys,82.1,15,Keaton Anderson,Prosper Walnut Grove,77.7,158.76,149.69,165.56,474,Unlimited,SBD,M,
Boys,82.1,16,Israel Lopez,Sherman,78.2,192.78,106.59,174.63,474,Unlimited,SBD,M,
Boys,82.1,17,Bryce Pieper,Howe,75.48,167.83,124.74,163.29,455.86,Unlimited,SBD,M,
Boys,82.1,18,James Cowart,Howe,79.7,174.63,108.86,161.03,444.52,Unlimited,SBD,M,
Boys,82.1,19,Corbin Hood,Ponder,77.02,151.95,102.06,183.7,437.72,Unlimited,SBD,M,
Boys,82.1,20,Jack York,Carrollton Creekview,78.79,136.08,120.2,176.9,433.18,Unlimited,SBD,M,
Boys,82.1,21,Oliver Kincannon,Denison,75.8,156.49,106.59,161.03,424.11,Unlimited,SBD,M,
Boys,82.1,22,Maurice Harris,Carrollton Creekview,80.78,156.49,102.06,161.03,419.57,Unlimited,SBD,M,
Boys,82.1,23,Parker Bryan,Howe,77.61,154.22,102.06,151.95,408.23,Unlimited,SBD,M,
Boys,82.1,24,Daniel Grear,Celina,78.11,151.95,111.13,142.88,405.97,Unlimited,SBD,M,
Boys,82.1,25,Noah Rondeau,Sadler S & S Consolidated,80.01,142.88,104.33,142.88,390.09,Unlimited,SBD,M,
Boys,82.1,26,Jayden Jackson,Sherman Texoma Christian School,79.7,142.88,83.91,142.88,369.68,Unlimited,SBD,M,
Boys,82.1,27,Kristoffer Warrren,Prosper Walnut Grove,81.28,102.06,115.67,138.35,356.07,Unlimited,SBD,M,
Boys,82.1,28,Landon Fruehan,Anna,76.7,133.81,79.38,140.61,353.8,Unlimited,SBD,M,
Boys,82.1,29,Warren Richardson,Wolfe City,79.51,113.4,102.06,133.81,349.27,Unlimited,SBD,M,
Boys,82.1,30,Cooper Adams,Anna,80.78,129.27,77.11,138.35,344.73,Unlimited,SBD,M,
Boys,82.1,31,Titus Tillman,Prosper Rock Hill,77.56,113.4,65.77,124.74,303.91,Unlimited,SBD,M,
Boys,82.1,DQ,Cooper Stevens,Prosper,77.61,217.72,,,,Unlimited,SBD,M,
Boys,82.1,DQ,Keegan Brinton,Prosper Rock Hill,82.1,170.1,,,,Unlimited,SBD,M,
Boys,82.1,DQ,Jose Monroy,Sherman,79.29,195.04,,,,Unlimited,SBD,M,
Boys,82.1,DQ,Brevin Mayo,Howe,79.29,,,,,Unlimited,SBD,M,
Boys,82.1,DQ,Alex Blasengame,Howe,80.6,,,,,Unlimited,SBD,M,
Boys,89.81,1,Toby Davis,Aubrey,83.19,272.16,142.88,249.48,664.51,Unlimited,SBD,M,
Boys,89.81,2,Joe Gionfriddo,Sherman,87.72,206.38,142.88,226.8,576.06,Unlimited,SBD,M,
Boys,89.81,3,Damarcus Cannon,Carrollton Creekview,88.81,192.78,129.27,217.72,539.77,Unlimited,SBD,M,
Boys,89.81,4,Austin Crawley,Denison,86.59,210.92,129.27,195.04,535.24,Unlimited,SBD,M,
Boys,89.81,5,Corigan Etter,Callisburg,88.31,192.78,124.74,183.7,501.22,Unlimited,SBD,M,
Boys,89.81,6,Mahlon Walker,Howe,88.99,174.63,138.35,188.24,501.22,Unlimited,SBD,M,
Boys,89.81,7,Hd Davis,Wolfe City,86.68,199.58,124.74,172.37,496.68,Unlimited,SBD,M,
Boys,89.81,8,Cody Ngyuen,Ponder,87.59,197.31,111.13,174.63,483.08,Unlimited,SBD,M,
Boys,89.81,9,Micheal Nadari,Prosper Walnut Grove,88.31,183.7,124.74,165.56,474,Unlimited,SBD,M,
Boys,89.81,10,Teagan Barnett,Callisburg,87.18,174.63,111.13,174.63,460.4,Unlimited,SBD,M,
Boys,89.81,11,Bowen McAdams,Callisburg,88.41,172.37,83.91,158.76,415.04,Unlimited,SBD,M,
Boys,89.81,12,Bryson Wyatt,Pottsboro,86.32,158.76,88.45,149.69,396.89,Unlimited,SBD,M,
Boys,89.81,13,Gavin Scharf,Prosper Walnut Grove,86.09,124.74,111.13,156.49,392.36,Unlimited,SBD,M,
Boys,89.81,14,Connor Boozer,Van Alstyne,86,138.35,95.25,129.27,362.87,Unlimited,SBD,M,
Boys,89.81,15,Brody Gardner,Wolfe City,85,133.81,90.72,113.4,337.93,Unlimited,SBD,M,
Boys,89.81,16,Robert Christian,Bells,88.9,111.13,79.38,129.27,319.78,Unlimited,SBD,M,
Boys,89.81,17,Tannor Kuhn,Sherman,88.5,124.74,61.23,129.27,315.25,Unlimited,SBD,M,
Boys,89.81,DQ,Blake Maitland,Ponder,85.91,,,,,Unlimited,SBD,M,
Boys,89.81,DQ,Greg Ard,McKinney North,83.19,,,,,Unlimited,SBD,M,
Boys,89.81,DQ,Michael Delgrego,Prosper Rock Hill,89.81,,,,,Unlimited,SBD,M,
Boys,99.79,1,Abram Ramirez,Sherman,96.3,247.21,156.49,231.33,635.03,Unlimited,SBD,M,
Boys,99.79,2,Cj Hubbard,Celina,97.2,229.06,174.63,231.33,635.03,Unlimited,SBD,M,
Boys,99.79,3,Angel Ramirez,Sherman,95.8,206.38,154.22,210.92,571.53,Unlimited,SBD,M,
Boys,99.79,4,Charles Turner,Howe,98.29,217.72,120.2,181.44,519.36,Unlimited,SBD,M,
Boys,99.79,5,Xavier Babb,Sherman,94.8,233.6,145.15,183.7,562.45,Unlimited,SBD,M,
Boys,99.79,6,Gabe McMillan,Denison,90.81,204.12,136.08,210.92,551.11,Unlimited,SBD,M,
Boys,99.79,7,Jordan Keller,Pottsboro,96.21,210.92,111.13,224.53,546.58,Unlimited,SBD,M,
Boys,99.79,8,Dillon Patterson,Howe,96.98,213.19,113.4,176.9,503.49,Unlimited,SBD,M,
Boys,99.79,9,Khain Morin,Sherman,97.61,161.03,127.01,206.38,494.42,Unlimited,SBD,M,
Boys,99.79,10,Parker Ringger,Sadler S & S Consolidated,99.02,201.85,106.59,147.42,455.86,Unlimited,SBD,M,
Boys,99.79,11,John Robin,Prosper Walnut Grove,99.7,147.42,104.33,170.1,421.84,Unlimited,SBD,M,
Boys,99.79,12,Rylen McSpedden,Sadler S & S Consolidated,98.38,158.76,102.06,145.15,405.97,Unlimited,SBD,M,
Boys,99.79,13,Shan Patel,Van Alstyne,98.2,136.08,81.65,147.42,365.14,Unlimited,SBD,M,
Boys,99.79,14,Asher Williams,Bells,98.79,129.27,77.11,142.88,349.27,Unlimited,SBD,M,
Boys,99.79,15,Jimarius Brown,Denison,95.3,97.52,92.99,136.08,326.59,Unlimited,SBD,M,
Boys,99.79,16,Gage Sanders,Wolfe City,99.2,170.1,108.86,174.63,453.59,Unlimited,SBD,M,
Boys,99.79,17,Daniel García,Wolfe City,92.99,170.1,106.59,136.08,412.77,Unlimited,SBD,M,
Boys,99.79,18,Aiden Samples,Wolfe City,92.71,147.42,90.72,163.29,401.43,Unlimited,SBD,M,
Boys,99.79,19,Richard Sharlow,Bells,92.22,88.45,56.7,88.45,233.6,Unlimited,SBD,M,
Boys,99.79,DQ,Dennis Arnold,Pilot Point,99.11,,,,,Unlimited,SBD,M,
Boys,99.79,DQ,Stephen Mora-Burk,Aubrey,92.4,,,,,Unlimited,SBD,M,
Boys,109.77,1,Yaseen Berry,McKinney North,108.68,206.38,133.81,260.82,601.01,Unlimited,SBD,M,
Boys,109.77,2,Kamden Dyess,Frisco Heritage,107.91,226.8,165.56,206.38,598.74,Unlimited,SBD,M,
Boys,109.77,3,Kaden Sabonis,Prosper Rock Hill,109.77,219.99,142.88,226.8,589.67,Unlimited,SBD,M,
Boys,109.77,4,Destin Deans,Carrollton Creekview,103.78,204.12,149.69,229.06,582.87,Unlimited,SBD,M,
Boys,109.77,5,Jaylon Walker,Sherman,106.19,240.4,124.74,217.72,582.87,Unlimited,SBD,M,
Boys,109.77,6,Xavier McCoy,Aubrey,109.09,206.38,183.7,192.78,582.87,Unlimited,SBD,M,
Boys,109.77,7,Blaine Turner,Ponder,104.51,217.72,111.13,226.8,555.65,Unlimited,SBD,M,
Boys,109.77,8,Malakai Meyer,Frisco Heritage,101.02,224.53,117.93,204.12,546.58,Unlimited,SBD,M,
Boys,109.77,9,Danilo Case,Carrollton Creekview,101.38,199.58,138.35,183.7,521.63,Unlimited,SBD,M,
Boys,109.77,10,Grant Frazier,Prosper Walnut Grove,105.28,197.31,138.35,183.7,519.36,Unlimited,SBD,M,
Boys,109.77,11,Hans Randell,Prosper Walnut Grove,106.41,188.24,124.74,206.38,519.36,Unlimited,SBD,M,
Boys,109.77,12,Cason Cox,Ponder,107.18,192.78,113.4,204.12,510.29,Unlimited,SBD,M,
Boys,109.77,13,Cameron Lucas,Prosper Rock Hill,109.77,185.97,115.67,172.37,474,Unlimited,SBD,M,
Boys,109.77,14,Jose Lopez,McKinney North,104.28,170.1,97.52,183.7,451.32,Unlimited,SBD,M,
Boys,109.77,15,Jacob Shadburn,Tioga,104.92,158.76,113.4,158.76,430.91,Unlimited,SBD,M,
Boys,109.77,16,Walker Gaylor,Van Alstyne,107.5,190.51,86.18,151.95,428.64,Unlimited,SBD,M,
Boys,109.77,17,Jesse Neal,Bells,106.59,120.2,74.84,127.01,322.05,Unlimited,SBD,M,
Boys,109.77,DQ,Josh Turner,Denison,102.29,226.8,,,,Unlimited,SBD,M,
Boys,109.77,DQ,Lucas Herrera,Pilot Point,104.51,136.08,79.38,,,Unlimited,SBD,M,
Boys,124.74,1,Cooper Duce,Denison,116.8,251.74,195.04,231.33,678.12,Unlimited,SBD,M,
Boys,124.74,2,Jake Johnson,Prosper,123.88,219.99,185.97,217.72,623.69,Unlimited,SBD,M,
Boys,124.74,3,Nate Kumler,Sherman,111.9,215.46,174.63,195.04,585.13,Unlimited,SBD,M,
Boys,124.74,4,Caleb Cox,Denison,111.22,204.12,145.15,215.46,564.72,Unlimited,SBD,M,
Boys,124.74,5,Juan Mendoza,Pilot Point,112.49,238.14,115.67,210.92,564.72,Unlimited,SBD,M,
Boys,124.74,6,Michael Wiemer,Howe,111.4,206.38,138.35,174.63,519.36,Unlimited,SBD,M,
Boys,124.74,7,Shane Brown,Ponder,122.02,188.24,106.59,204.12,498.95,Unlimited,SBD,M,
Boys,124.74,8,Alex Puentes,Wolfe City,114.71,183.7,142.88,163.29,489.88,Unlimited,SBD,M,
Boys,124.74,9,Tyson Monk,Tioga,122.52,197.31,127.01,165.56,489.88,Unlimited,SBD,M,
Boys,124.74,10,Cody Killgo,Wolfe City,121.29,174.63,136.08,156.49,467.2,Unlimited,SBD,M,
Boys,124.74,11,Jase Williams,Wolfe City,122.52,172.37,124.74,165.56,462.66,Unlimited,SBD,M,
Boys,124.74,12,Matthew Phillips,Carrollton Creekview,110.68,145.15,106.59,176.9,428.64,Unlimited,SBD,M,
Boys,124.74,13,Taylor Phillips,Dodd City,116.62,145.15,90.72,151.95,387.82,Unlimited,SBD,M,
Boys,124.74,14,Brandon Gage,Sherman Texoma Christian School,111.22,102.06,68.04,122.47,292.57,Unlimited,SBD,M,
Boys,124.74,DQ,Ethan McNeary,Anna,121.7,,,,,Unlimited,SBD,M,
Boys,139.71,1,Gustavo Perez,Callisburg,135.9,281.23,188.24,215.46,684.92,Unlimited,SBD,M,
Boys,139.71,2,Travis Chinamhora,Carrollton Creekview,128.5,229.06,163.29,204.12,596.47,Unlimited,SBD,M,
Boys,139.71,3,Sean Stover,Prosper,125.92,226.8,170.1,197.31,594.21,Unlimited,SBD,M,
Boys,139.71,4,Diesel Wanamaker,Callisburg,135.71,249.48,111.13,226.8,587.4,Unlimited,SBD,M,
Boys,139.71,4,Demond Donahue,McKinney North,132,231.33,131.54,222.26,585.13,Unlimited,SBD,M,
Boys,139.71,5,Logan Cahill,Prosper,133.22,208.65,158.76,183.7,551.11,Unlimited,SBD,M,
Boys,139.71,6,Bryson Crockett,McKinney North,134.31,206.38,120.2,192.78,519.36,Unlimited,SBD,M,
Boys,139.71,7,Tyler Spangler,Celina,133.4,199.58,122.47,192.78,514.83,Unlimited,SBD,M,
Boys,139.71,8,Rick Gomez,McKinney North,129.68,170.1,92.99,183.7,446.79,Unlimited,SBD,M,
Boys,139.71,9,Caynen Ingram,Dodd City,130.82,127.01,70.31,124.74,322.05,Unlimited,SBD,M,
Boys,139.71+,1,Manny Segundo,Celina,151.32,278.96,174.63,226.8,680.39,Unlimited,SBD,M,
Boys,139.71+,2,Levi Ullah,Sherman,149.1,240.4,181.44,208.65,630.49,Unlimited,SBD,M,
Boys,139.71+,3,Carson Culp,Pottsboro,165.79,240.4,156.49,174.63,571.53,Unlimited,SBD,M,
Boys,139.71+,4,Derek Cervantes,Pottsboro,148.91,206.38,156.49,183.7,546.58,Unlimited,SBD,M,
