Division,WeightClassKg,Place,Name,Team,BodyweightKg,Best3SquatKg,Best3BenchKg,Best3DeadliftKg,TotalKg,Equipment,Event,Sex,BirthDate
Boys,55.79,1,Jagger Ramirez,La Porte,55.25,54.43,52.16,88.45,195.04,Unlimited,SBD,M,
Boys,59.87,1,Roddryn Singleton,Dickinson,59.51,158.76,90.72,145.15,394.63,Unlimited,SBD,M,
Boys,59.87,2,Austin Vincent,La Porte,56.34,92.99,74.84,92.99,260.82,Unlimited,SBD,M,
Boys,67.13,1,Gilberto Herrera,Pasadena Dobie,64.73,117.93,79.38,122.47,319.78,Unlimited,SBD,M,
Boys,74.84,1,Dehuin Feanic,La Porte,70.94,149.69,97.52,197.31,444.52,Unlimited,SBD,M,
Boys,74.84,2,David Contreras,Pasadena Dobie,74.66,167.83,92.99,170.1,430.91,Unlimited,SBD,M,
Boys,74.84,3,Chase Nelson,Dickinson,71.85,149.69,81.65,145.15,376.48,Unlimited,SBD,M,
Boys,74.84,4,Hayden Beck,Dickinson,71.76,133.81,86.18,151.95,371.95,Unlimited,SBD,M,
Boys,74.84,5,Elijah Wicker,La Porte,67.27,92.99,79.38,142.88,315.25,Unlimited,SBD,M,
Boys,74.84,6,Conner Lozano,Galveston Ball,74.12,102.06,61.23,90.72,254.01,Unlimited,SBD,M,
Boys,82.1,1,Richard Quiroz,Galveston Ball,77.56,172.37,111.13,179.17,462.66,Unlimited,SBD,M,
Boys,82.1,2,Eduardo Septimo,Galveston Ball,81.37,124.74,83.91,124.74,333.39,Unlimited,SBD,M,
Boys,89.81,1,Nicholas Flores,Dickinson,89.63,206.38,111.13,219.99,537.51,Unlimited,SBD,M,
Boys,89.81,2,Justin Sagastizadl,Dickinson,87.63,208.65,124.74,199.58,532.97,Unlimited,SBD,M,
Boys,89.81,3,Jose Rico,Dickinson,89.58,172.37,83.91,183.7,439.98,Unlimited,SBD,M,
Boys,89.81,4,Jordan Miller,Dickinson,89.72,158.76,95.25,176.9,430.91,Unlimited,SBD,M,
Boys,89.81,5,Adam Lara,Galveston Ball,87,122.47,97.52,161.03,381.02,Unlimited,SBD,M,
Boys,89.81,6,Zavier Silva,La Porte,86.5,122.47,99.79,156.49,378.75,Unlimited,SBD,M,
Boys,89.81,7,Xzavier Aguirre,La Porte,85.28,86.18,81.65,136.08,303.91,Unlimited,SBD,M,
Boys,99.79,1,Jose Godinez,Dickinson,92.08,247.21,174.63,219.99,641.83,Unlimited,SBD,M,
Boys,99.79,2,Jesse Santa-Cruz,La Porte,95.89,151.95,104.33,183.7,439.98,Unlimited,SBD,M,
Boys,99.79,3,Alex Salguero,Pasadena Dobie,92.71,124.74,102.06,165.56,392.36,Unlimited,SBD,M,
Boys,99.79,4,Ethan Pereida,La Porte,98.52,113.4,102.06,136.08,351.53,Unlimited,SBD,M,
Boys,99.79,5,Everett Garza,Pasadena Dobie,92.58,92.99,54.43,133.81,281.23,Unlimited,SBD,M,
Boys,109.77,1,Luis Ramírez,Dickinson,108.95,233.6,136.08,204.12,573.79,Unlimited,SBD,M,
Boys,109.77,2,Bryce Causey,Dickinson,102.69,226.8,120.2,195.04,542.04,Unlimited,SBD,M,
Boys,109.77,3,Carlos Zuniga,Pasadena Dobie,109.59,183.7,102.06,181.44,467.2,Unlimited,SBD,M,
Boys,109.77,4,Anthony Salguero,Pasadena Dobie,102.42,102.06,108.86,170.1,381.02,Unlimited,SBD,M,
Boys,109.77,5,Julius Compian,Galveston Ball,103.69,111.13,70.31,142.88,324.32,Unlimited,SBD,M,
Boys,109.77,6,Julian Alvarez,Pasadena Dobie,104.37,181.44,111.13,188.24,480.81,Unlimited,SBD,M,
Boys,124.74,1,Jordan Griffin,Dickinson,116.48,210.92,122.47,208.65,542.04,Unlimited,SBD,M,
Boys,124.74,2,Aaron Moran,Dickinson,124.74,183.7,106.59,190.51,480.81,Unlimited,SBD,M,
Boys,124.74,3,Ryan Ngo,Pasadena Dobie,117.16,185.97,106.59,183.7,476.27,Unlimited,SBD,M,
Boys,124.74,4,Alan Bennacke,Galveston Ball,123.15,113.4,83.91,136.08,333.39,Unlimited,SBD,M,
Boys,139.71,1,Bryan Gonzalez,Dickinson,131.41,238.14,106.59,179.17,523.9,Unlimited,SBD,M,
Boys,139.71,2,Jeremiah Oliver,Galveston Ball,131.54,124.74,79.38,170.1,374.21,Unlimited,SBD,M,
